{
   "commonServiceRequest":{
      "requestorUserID":"userid",
      "transactionlD":"12345",
      "transactionTimestamp":"2019-05-23T14:17:19.487"
   },
   "poiList":{
      "operationCategoryAndPoiRecord":{
            "operationCategory":"APPEND",
            "poiRecord":{
               "informationSource":{
                  "sourceAgencyCode":"WAPOL",
                  "sourceReferenceNumber":"742661",
                  "sourceAdditionalReference":[

                  ]
               },
               "adhocLinks":{
                  "link":[

                  ]
               },
               "createdDate":"2002-08-19",
               "personID":"WA-742661",
               "person":{
                  "cnildentifier":"550263892",
                  "personDetailsList":{
                     "personDetails":[
                        {
                           "informationSource":{
                              "sourceAgencyCode":"WAPOL",
                              "sourceReferenceNumber":"742661",
                              "sourceAdditionalReference":[

                              ]
                           },
                           "personDetailsID":"742661",
                           "createdDate":"2017-09-15",
                           "personName":{
                              "personFamilyName":"BATEMAN",
                              "personGivenName1":"Noel",
                              "personGivenName2":"",
                              "personGivenName3":"",
                              "nameUsageCategoryCode":"PREFERRED NAME"
                           },
                           "personDemographicDetails":{
                              "personBirthDate":{
                                 "day":"17",
                                 "month":"3",
                                 "year":"1962"
                              },
                              "birthDateString":"19620317",
                              "estimatedBirthYearIndicator":false,
                              "personGenderCode":"MALE"
                           }
                        },
                        {
                           "informationSource":{
                              "sourceAgencyCode":"WAPOL",
                              "sourceReferenceNumber":"742661",
                              "sourceAdditionalReference":[

                              ]
                           },
                           "personDetailsID":"AAAWUAAAVAAAL5vAAo",
                           "personName":{
                              "personFamilyName":"CLAY",
                              "personGivenNamel":"Noel",
                              "personGivenName2":"",
                              "personGivenName3":"",
                              "nameUsageCategoryCode":"ALIAS"
                           },
                           "personDemographicDetails":{
                              "personBirthDate":{
                                 "day":"17",
                                 "month":"3",
                                 "year":"1962"
                              },
                              "birthDateString":"19620317",
                              "estimatedBirthYearIndicator":false,
                              "personGenderCode":"UNKNOWN"
                           }
                        },
                        {
                           "informationSource":{
                              "sourceAgencyCode":"WAPOL",
                              "sourceReferenceNumber":"742661",
                              "sourceAdditionalReference":[

                              ]
                           },
                           "personDetailslD":"AAAWUAAAcAAA02rAAT",
                           "personName":{
                              "personFamilyName":"HILTON",
                              "personGivenNamel":"Noel",
                              "personGivenName2":"",
                              "personGivenName3":"",
                              "nameUsageCategoryCode":"ALIAS"
                           },
                           "personDemographicDetails":{
                              "personBirthDate":{
                                 "day":"17",
                                 "month":"3",
                                 "year":"1962"
                              },
                              "birthDateString":"19620317",
                              "estimatedBirthYearindicator":false,
                              "personGenderCode":"UNKNOWN"
                           }
                        },
                        {
                           "informationSource":{
                              "sourceAgencyCode":"WAPOL",
                              "sourceReferenceNumber":"742661",
                              "sourceAdditionalReference":[

                              ]
                           },
                           "personDetailslD":"AAAWUAAA4AAAN5MAAC",
                           "personName":{
                              "personFamilyName":"GALLAGHER",
                              "personGivenNamel":"Noel",
                              "personGivenName2":"",
                              "personGivenName3":"",
                              "nameUsageCategoryCode":"ALIAS"
                           },
                           "personDemographicDetails":{
                              "personBirthDate":{
                                 "day":"17",
                                 "month":"3",
                                 "year":"1962"
                              },
                              "birthDateString":"19620317",
                              "estimatedBirthYearindicator":false,
                              "personGenderCode":"UNKNOWN"
                           }
                        },
                        {
                           "informationSource":{
                              "sourceAgencyCode":"WAPOL",
                              "sourceReferenceNumber":"742661",
                              "sourceAdditionalReference":[

                              ]
                           },
                           "personDetailslD":"AAAWUAAAcAAAQcXAAe",
                           "personName":{
                              "personFamilyName":"NORTH",
                              "personGivenNamel":"Noel",
                              "personGivenName2":"",
                              "personGivenName3":"",
                              "nameUsageCategoryCode":"ALIAS"
                           },
                           "personDemographicDetails":{
                              "personBirthDate":{
                                 "day":"17",
                                 "month":"3",
                                 "year":"1962"
                              },
                              "birthDateString":"19620317",
                              "estimatedBirthYearindicator":false,
                              "personGenderCode":"UNKNOWN"
                           }
                        },
                        {
                           "informationSource":{
                              "sourceAgencyCode":"WAPOL",
                              "sourceReferenceNumber":"742661",
                              "sourceAdditionalReference":[

                              ]
                           },
                           "personDetailslD":"AAAWUAAA4AABcieNAAD",
                           "personName":{
                              "personFamilyName":"HARDY",
                              "personGivenNamel":"",
                              "personGivenName2":"",
                              "personGivenName3":"",
                              "nameUsageCategoryCode":"ALIAS"
                           },
                           "personDemographicDetails":{
                              "estimatedBirthYearindicator":false,
                              "personGenderCode":"UNKNOWN"
                           }
                        },
                        {
                           "informationSource":{
                              "sourceAgencyCode":"WAPOL",
                              "sourceReferenceNumber":"742661",
                              "sourceAdditionalReference":[

                              ]
                           },
                           "personDetailsID":"AAAWUAAAkAAATUDAAn",
                           "personName":{
                              "personFamilyName":"MOIR",
                              "personGivenNamel":"Noel",
                              "personGivenName2":"",
                              "personGivenName3":"",
                              "nameUsageCategoryCode":"ALIAS"
                           },
                           "personDemographicDetails":{
                              "personBirthDate":{
                                 "day":"17",
                                 "month":"3",
                                 "year":"1962"
                              },
                              "birthDateString":"19620317",
                              "estimatedBirthYearindicator":false,
                              "personGenderCode":"UNKNOWN"
                           }
                        },
                        {
                           "informationSource":{
                              "sourceAgencyCode":"WAPOL",
                              "sourceReferenceNumber":"742661",
                              "sourceAdditionalReference":[

                              ]
                           },
                           "personDetailsID":"AAAWUAAAeAAAr23AAO",
                           "personName":{
                              "personFamilyName":"RITZ",
                              "personGivenNamel":"Noel",
                              "personGivenName2":"",
                              "personGivenName3":"",
                              "nameUsageCategoryCode":"ALIAS"
                           },
                           "personDemographicDetails":{
                              "personBirthDate":{
                                 "day":"17",
                                 "month":"3",
                                 "year":"1962"
                              },
                              "birthDateString":"19620317",
                              "estimatedBirthYearindicator":false,
                              "personGenderCode":"UNKNOWN"
                           }
                        }
                     ]
                  },
                  "personPhysicalDescriptionList":{
                     "personPhysicalDescription":[
                        {
                           "informationSource":{
                              "sourceAgencyCode":"NSWPOL",
                              "sourceReferenceNumber":"649078232",
                              "sourceAdditionalReference":[

                              ]
                           },
                           "physicalDescriptionID":"0126898405",
                           "descriptionDate":"2018-09-18",
                           "personBirthLocation":{
                              "locationCountryName":"UNKN-POLICE DECIDE NOT TO ASK"
                           },
                           "personBuildCode":"SOLID",
                           "personComplexionCode":"LIGHT BROWN",
                           "personEthnicAppearance":"PACIFIC ISLANDER",
                           "personEyeColour":"BROWN",
                           "personFacialHairStyle":"NO FACIAL HAIR",
                           "personHairColour":"BLACK",
                           "personHeightMeasure":178.0,
                           "personWeightMeasure":93.0,
                           "indigenousGroupCode":"NEITHER TSI NOR ABORIGINAL"
                        }
                     ]
                  },
                  "personPhysicalFeatureList":{
                     "personPhysicalFeature":[
                        {
                           "informationSource":{
                              "sourceAgencyCode":"WAPOL",
                              "sourceReferenceNumber":"742661",
                              "sourceAdditionalReference":[

                              ]
                           },
                           "physicalFeaturelD":"5039160",
                           "physicalFeatureLocation":{
                              "featureLocationCode":"EAR",
                              "featureLocationSideCode":"UNRECOGNISED"
                           },
                           "featureLocationText":"Ear - Lower",
                           "physicalFeatureDate":"2009-09-20",
                           "physicalFeatureCategoryCode":"BODY PIERCING"
                        }
                     ],
                     "tattoo":[

                     ]
                  }
               },
               "photoImageList":{
                  "photoImageTypeGroup":[
                     {
                        "photoImage":{
                           "informationSource":{
                              "sourceAgencyCode":"WAPOL",
                              "sourceReferenceNumber":"742661",
                              "sourceAdditionalReference":[

                              ]
                           },
                           "fullImage":{
                              "imageResource":{
                                 "imageID":"FNBTEST20190731",
                                 "binaryObject":"/9j/4AAQSks7tH//ZHA=="
                              },
                              "imageCaptureDate":"2016-01-13",
                              "imageReferenceNumber":"EJUSTICERINGWOOD13355",
                              "thumbnailImage":{
                                 "imageResource":{
                                    "imageID":"TNBTEST20190731",
                                    "binaryObject":"/9j/4AA//ZHA=="
                                 }
                              },
                              "photoImageId":"NBTEST20190731",
                              "photoContextCode":"ACCUSED",
                              "adhocLinks":{
                                 "link":[
                                    {
                                       "type":"simpleâ€”thumbImage",
                                       "href":"urn:crimtrac-gov-au:cprs:resources:attach:/resources?id=T13355VICPOL&source=VIC POL",
                                       "label":"T13355VICPOL"
                                    },
                                    {
                                       "type":"simpleâ€”fullImage",
                                       "href":"urn:crimtrac-gov-au:cprs:resources:attach:/resources?id=F13355VICPOL&source=VIC POL",
                                       "label":"F13355VICPOL"
                                    }
                                 ]
                              }
                           }
                        }
                     }
                  ]
               },
               "identificationList":{
                  "identification":[
                     {
                        "informationSource":{
                           "sourceAgencyCode":"WAPOL",
                           "sourceReferenceNumber":"742661",
                           "sourceAdditionalReference":[

                           ]
                        },
                        "identificationID":"3066319",
                        "identifierIssuer":"WA",
                        "identifierName":"",
                        "personDetailsID":""
                     }
                  ]
               },
               "addressList":{
                  "personAddressAssociation":[
                     {
                        "informationSource":{
                           "sourceAgencyCode":"WAPOL",
                           "sourceReferenceNumber":"742661",
                           "sourceAdditionalReference":[

                           ]
                        },
                        "dateRepresentation":[

                        ],
                        "address":{
                           "informationSource":{
                              "sourceAgencyCode":"WAPOL",
                              "sourceReferenceNumber":"742661",
                              "sourceAdditionalReference":[

                              ]
                           },
                           "addresslD":"17108478",
                           "addressDate":"2004-08-03",
                           "addressDateString":"20040803",
                           "addressCategoryCode":"POSTAL",
                           "buildingComplexAddress":{
                              "subDwellingUnit":{

                              }
                           },
                           "addressRoadNumber":{

                           },
                           "addressRoad":{

                           },
                           "unstructuredAddress":{
                              "textLine":[
                                 "PO BOX 797 MOUNT LAWLEY 6008"
                              ]
                           },
                           "overseasAddresslndicator":false
                        }
                     },
                     {
                        "informationSource":{
                           "sourceAgencyCode":"WAPOL",
                           "sourceReferenceNumber":"742661",
                           "sourceAdditionalReference":[

                           ]
                        },
                        "dateRepresentation":[

                        ],
                        "address":{
                           "informationSource":{
                              "sourceAgencyCode":"WAPOL",
                              "sourceReferenceNumber":"742661",
                              "sourceAdditionalReference":[

                              ]
                           },
                           "addressID":"17108479",
                           "addressDate":"2004-08-03",
                           "addressDateString":"20040803",
                           "addressCategoryCode":"RESIDENTIAL",
                           "buildingComplexAddress":{
                              "subDwellingUnit":{

                              }
                           },
                           "addressRoadNumber":{
                              "roadNumberFrom":"8"
                           },
                           "addressRoad":{
                              "roadName":"Brigid",
                              "roadCategoryCode":"RD"
                           },
                           "localityName":"MOUNT LAWLEY",
                           "stateTerritoryCode":"WA",
                           "postcode":"6008",
                           "unstructuredAddress":{
                              "textLine":[
                                 "8 Brigid RD MOUNT LAWLEY 6008"
                              ]
                           },
                           "overseasAddresslndicator":false
                        }
                     },
                     {
                        "InformationSource":{
                           "sourceAgencyCode":"WAPOL",
                           "sourceReferenceNumber":"742661",
                           "sourceAdditionalReference":[

                           ]
                        },
                        "dateRepresentation":[

                        ],
                        "address":{
                           "informationSource":{
                              "sourceAgencyCode":"WAPOL",
                              "sourceReferenceNumber":"742661",
                              "sourceAdditionalReference":[

                              ]
                           },
                           "addressID":"5149150",
                           "addressDate":"1997-11-21",
                           "addressDateString":"19971121",
                           "addressCategoryCode":"RESIDENTIAL",
                           "buildingComplexAddress":{
                              "subDwellingUnit":{

                              }
                           },
                           "addressRoadNumber":{
                              "roadNumberFrom":"40"
                           },
                           "addressRoad":{
                              "roadName":"Park",
                              "roadCategoryCode":"RD"
                           },
                           "localityName":"MOUNT LAWLEY",
                           "stateTerritoryCode":"WA",
                           "postcode":"6008",
                           "unstructuredAddress":{
                              "textLine":[
                                 "24 Park RD MOUNT LAWLEY 6008"
                              ]
                           },
                           "overseasAddressIndicator":false
                        }
                     },
                     {
                        "informationSource":{
                           "sourceAgencyCode":"WAPOL",
                           "sourceReferenceNumber":"742661",
                           "sourceAdditionalReference":[

                           ]
                        },
                        "dateRepresentation":[

                        ],
                        "address":{
                           "informationSource":{
                              "sourceAgencyCode":"WAPOL",
                              "sourceReferenceNumber":"742661",
                              "sourceAdditionalReference":[

                              ]
                           },
                           "addresslD":"28788498",
                           "addressDate":"2002-08-20",
                           "addressDateString":"20020820 07:03:41",
                           "addressCategoryCode":"RESIDENTIAL",
                           "buildingComplexAddress":{
                              "subDwellingUnit":{

                              }
                           },
                           "addressRoadNumber":{
                              "roadNumberFrom":"40"
                           },
                           "addressRoad":{
                              "roadName":"Park",
                              "roadCategoryCode":"RD"
                           },
                           "localityName":"MOUNT LAWLEY",
                           "stateTerritoryCode":"WA",
                           "postcode":"6008",
                           "unstructuredAddress":{
                              "textLine":[
                                 "24 Park RD MOUNT LAWLEY 6008"
                              ]
                           },
                           "overseasAddressIndicator":false
                        }
                     },
                     {
                        "informationSource":{
                           "sourceAgencyCode":"WAPOL",
                           "sourceReferenceNumber":"742661",
                           "sourceAdditionalReference":[

                           ]
                        },
                        "dateRepresentation":[

                        ],
                        "address":{
                           "informationSource":{
                              "sourceAgencyCode":"WAPOL",
                              "sourceReferenceNumber":"742661",
                              "sourceAdditionalReference":[

                              ]
                           },
                           "addressID":"27895089",
                           "addressDate":"2014-05-23",
                           "addressDateString":"20140523 21:48:43",
                           "addressCategoryCode":"RESIDENTIAL",
                           "buildingComplexAddress":{
                              "subDwellingUnit":{
                                 "subDwellingUnitNumber":"8"
                              }
                           },
                           "addressRoadNumber":{
                              "roadNumberFrom":"20"
                           },
                           "addressRoad":{
                              "roadName":"Shenton Park",
                              "roadCategoryCode":"RD"
                           },
                           "localityName":"WEST PERTH",
                           "stateTerritoryCode":"WA",
                           "postcode":"6005",
                           "unstructuredAddress":{
                              "textLine":[
                                 "8/20 Shenton Park RD WEST PERTH 6005"
                              ]
                           },
                           "overseasAddresslndicator":false
                        }
                     },
                     {
                        "informationSource":{
                           "sourceAgencyCode":"WAPOL",
                           "sourceReferenceNumber":"742661",
                           "sourceAdditionalReference":[

                           ]
                        },
                        "dateRepresentation":[

                        ],
                        "address":{
                           "informationSource":{
                              "sourceAgencyCode":"WAPOL",
                              "sourceReferenceNumber":"742661",
                              "sourceAdditionalReference":[

                              ]
                           },
                           "addresslD":"29325067",
                           "addressDate":"2014-05-23",
                           "addressDateString":"20140523 21:48:43",
                           "addressCategoryCode":"RESIDENTIAL",
                           "buildingComplexAddress":{
                              "subDwellingUnit":{
                                 "subDwellingUnitNumber":"8"
                              }
                           },
                           "addressRoadNumber":{
                              "roadNumberFrom":"20"
                           },
                           "addressRoad":{
                              "roadName":"Shenton Park",
                              "roadCategoryCode":"RD"
                           },
                           "localityName":"WEST PERTH",
                           "stateTerritoryCode":"WA",
                           "postcode":"6005",
                           "unstructuredAddress":{
                              "textLine":[
                                 "8/20 Shenton Park RD WEST PERTH 6005"
                              ]
                           },
                           "overseasAddresslndicator":false
                        }
                     },
                     {
                        "informationSource":{
                           "sourceAgencyCode":"WAPOL",
                           "sourceReferenceNumber":"742661",
                           "sourceAdditionalReference":[

                           ]
                        },
                        "dateRepresentation":[

                        ],
                        "address":{
                           "informationSource":{
                              "sourceAgencyCode":"WAPOL",
                              "sourceReferenceNumber":"742661",
                              "sourceAdditionalReference":[

                              ]
                           },
                           "addresslD":"27744188",
                           "addressDate":"2002-08-20",
                           "addressDateString":"20020820 07:03:41",
                           "addressCategoryCode":"RESIDENTIAL",
                           "buildingComplexAddress":{
                              "subDwellingUnit":{

                              }
                           },
                           "addressRoadNumber":{
                              "roadNumberFrom":"144"
                           },
                           "addressRoad":{
                              "roadName":"Waterloo",
                              "roadCategoryCode":"ST"
                           },
                           "localityName":"TUART HILL",
                           "stateTerritoryCode":"WA",
                           "postcode":"6060",
                           "unstructuredAddress":{
                              "textLine":[
                                 "144 Waterloo ST TUART HILL 6060"
                              ]
                           },
                           "overseasAddressIndicator":false
                        }
                     },
                     {
                        "informationSource":{
                           "sourceAgencyCode":"WAPOL",
                           "sourceReferenceNumber":"742661",
                           "sourceAdditionalReference":[

                           ]
                        },
                        "dateRepresentation":[

                        ],
                        "address":{
                           "informationSource":{
                              "sourceAgencyCode":"WAPOL",
                              "sourceReferenceNumber":"742661",
                              "sourceAdditionalReference":[

                              ]
                           },
                           "addressID":"28946251",
                           "addressDate":"2002-08-20",
                           "addressDateString":"20020820 07:03:41",
                           "addressCategoryCode":"RESIDENTIAL",
                           "buildingComplexAddress":{
                              "subDwellingUnit":{

                              }
                           },
                           "addressRoadNumber":{
                              "roadNumberFrom":"71"
                           },
                           "addressRoad":{
                              "roadName":"Hanworth",
                              "roadCategoryCode":"ST"
                           },
                           "localityName":"STIRLING",
                           "stateTerritoryCode":"WA",
                           "postcode":"6021",
                           "unstructuredAddress":{
                              "textLine":[
                                 "71 Hanworth ST STIRLING 6021"
                              ]
                           },
                           "overseasAddressIndicator":false
                        }
                     },
                     {
                        "informationSource":{
                           "sourceAgencyCode":"WAPOL",
                           "sourceReferenceNumber":"742661",
                           "sourceAdditionalReference":[

                           ]
                        },
                        "dateRepresentation":[

                        ],
                        "address":{
                           "informationSource":{
                              "sourceAgencyCode":"WAPOL",
                              "sourceReferenceNumber":"742661",
                              "sourceAdditionalReference":[

                              ]
                           },
                           "addressID":"27715798",
                           "addressDate":"2002-08-20",
                           "addressDateString":"20020820 07:03:41",
                           "addressCategoryCode":"RESIDENTIAL",
                           "buildingComplexAddress":{
                              "subDwellingUnit":{

                              }
                           },
                           "addressRoadNumber":{
                              "roadNumberFrom":"71"
                           },
                           "addressRoad":{
                              "roadName":"Hanworth",
                              "roadCategoryCode":"ST"
                           },
                           "localityName":"STIRLING",
                           "stateTerritoryCode":"WA",
                           "postcode":"6021",
                           "unstructuredAddress":{
                              "textLine":[
                                 "71 Hanworth ST STIRLING 6021"
                              ]
                           },
                           "overseasAddressIndicator":false
                        }
                     },
                     {
                        "informationSource":{
                           "sourceAgencyCode":"WAPOL",
                           "sourceReferenceNumber":"742661",
                           "sourceAdditionalReference":[

                           ]
                        },
                        "dateRepresentation":[

                        ],
                        "address":{
                           "informationSource":{
                              "sourceAgencyCode":"WAPOL",
                              "sourceReferenceNumber":"742661",
                              "sourceAdditionalReference":[

                              ]
                           },
                           "addressID":"28233438",
                           "addressDate":"2005-07-31",
                           "addressDateString":"20050731 10:33:23",
                           "addressCategoryCode":"RESIDENTIAL",
                           "buildingComplexAddress":{
                              "subDwellingUnit":{

                              }
                           },
                           "addressRoadNumber":{
                              "roadNumberFrom":"14"
                           },
                           "addressRoad":{
                              "roadName":"Hawthorn",
                              "roadCategoryCode":"GR"
                           },
                           "localityName":"MOUNT HAWTHORN",
                           "stateTerritoryCode":"WA",
                           "postcode":"6016",
                           "unstructuredAddress":{
                              "textLine":[
                                 "14 Hawthorn GR MOUNT HAWTHORN 6016"
                              ]
                           },
                           "overseasAddresslndicator":false
                        }
                     },
                     {
                        "informationSource":{
                           "sourceAgencyCode":"WAPOL",
                           "sourceReferenceNumber":"742661",
                           "sourceAdditionalReference":[

                           ]
                        },
                        "dateRepresentation":[

                        ],
                        "address":{
                           "informationSource":{
                              "sourceAgencyCode":"WAPOL",
                              "sourceReferenceNumber":"742661",
                              "sourceAdditionalReference":[

                              ]
                           },
                           "addressID":"29203603",
                           "addressDate":"2002-08-20",
                           "addressDateString":"20020820 07:03:41",
                           "addressCategoryCode":"RESIDENTIAL",
                           "buildingComplexAddress":{
                              "subDwellingUnit":{

                              }
                           },
                           "addressRoadNumber":{
                              "roadNumberFrom":"3"
                           },
                           "addressRoad":{
                              "roadName":"Merley",
                              "roadCategoryCode":"CR"
                           },
                           "localityName":"CITY BEACH",
                           "stateTerritoryCode":"WA",
                           "postcode":"6015",
                           "unstructuredAddress":{
                              "textLine":[
                                 "3 Merley CR CITY BEACH 6015"
                              ]
                           },
                           "overseasAddresslndicator":false
                        }
                     },
                     {
                        "informationSource":{
                           "sourceAgencyCode":"WAPOL",
                           "sourceReferenceNumber":"742661",
                           "sourceAdditionalReference":[

                           ]
                        },
                        "dateRepresentation":[

                        ],
                        "address":{
                           "informationSource":{
                              "sourceAgencyCode":"WAPOL",
                              "sourceReferenceNumber":"742661",
                              "sourceAdditionalReference":[

                              ]
                           },
                           "addresslD":"28323009",
                           "addressDate":"2002-08-20",
                           "addressDateString":"20020820 07:03:41",
                           "addressCategoryCode":"RESIDENTIAL",
                           "buildingComplexAddress":{
                              "subDwellingUnit":{

                              }
                           },
                           "addressRoadNumber":{
                              "roadNumberFrom":"3"
                           },
                           "addressRoad":{
                              "roadName":"Merley",
                              "roadCategoryCode":"CR"
                           },
                           "localityName":"CITY BEACH",
                           "stateTerritoryCode":"WA",
                           "postcode":"6015",
                           "unstructuredAddress":{
                              "textLine":[
                                 "3 Merley CR CITY BEACH 6015"
                              ]
                           },
                           "overseasAddressIndicator":false
                        }
                     },
                     {
                        "informationSource":{
                           "sourceAgencyCode":"WAPOL",
                           "sourceReferenceNumber":"742661",
                           "sourceAdditionalReference":[

                           ]
                        },
                        "dateRepresentation":[

                        ],
                        "address":{
                           "informationSource":{
                              "sourceAgencyCode":"WAPOL",
                              "sourceReferenceNumber":"742661",
                              "sourceAdditionalReference":[

                              ]
                           },
                           "addresslD":"28320699",
                           "addressDate":"2002-08-20",
                           "addressDateString":"20020820 07:03:41",
                           "addressCategoryCode":"RESIDENTIAL",
                           "buildingComplexAddress":{
                              "subDwellingUnit":{

                              }
                           },
                           "addressRoadNumber":{
                              "roadNumberFrom":"71"
                           },
                           "addressRoad":{
                              "roadName":"Hanworth",
                              "roadCategoryCode":"ST"
                           },
                           "localityName":"STIRLING",
                           "stateTerritoryCode":"WA",
                           "postcode":"6021",
                           "unstructuredAddress":{
                              "textLine":[
                                 "71 Hanworth ST STIRLING 6021"
                              ]
                           },
                           "overseasAddresslndicator":false
                        }
                     }
                  ]
               },
               "involvementList":{
                  "involvement":[
                     {
                        "personDetailsID":"742661",
                        "involvementGroup":{
                           "offence":{
                              "informationSource":{
                                 "sourceAgencyCode":"WAPOL",
                                 "sourceReferenceNumber":"16899",
                                 "sourceAdditionalReference":[

                                 ]
                              },
                              "involvementStatusCode":"ACTIVE",
                              "offencelD":"CO-1422786",
                              "jurisdictionOffenceDescription":"OPERATE BANK A/C UNDER FALSE NAME",
                              "offenceProcessStatus":"APPROVED",
                              "offenceProcessStatusDate":"1990-08-30",
                              "offenceProcessLocationString":"Perth Court of Petty Sessions",
                              "offenceStatusDetails":"[Counts 9]$1,000 EA CHG",
                              "roleCode":"CH"
                           }
                        }
                     },
                     {
                        "personDetailsID":"742661",
                        "involvementGroup":{
                           "offence":{
                              "informationSource":{
                                 "sourceAgencyCode":"WAPOL",
                                 "sourceReferenceNumber":"16899",
                                 "sourceAdditionalReference":[

                                 ]
                              },
                              "involvementStatusCode":"ACTIVE",
                              "offencelD":"CO-1422789",
                              "jurisdictionOffenceDescription":"LIQ PROFIT SHARING",
                              "offenceProcessStatus":"APPROVED",
                              "offenceProcessStatusDate":"1990-08-28",
                              "offenceProcessLocationString":"Perth Court of Petty Sessions",
                              "offenceStatusDetails":"[Counts 1]$500",
                              "roleCode":"CH"
                           }
                        }
                     },
                     {
                        "personDetailsID":"742661",
                        "involvementGroup":{
                           "offence":{
                              "informationSource":{
                                 "sourceAgencyCode":"WAPOL",
                                 "sourceReferenceNumber":"16899",
                                 "sourceAdditionalReference":[

                                 ]
                              },
                              "involvementStatusCode":"ACTIVE",
                              "offenceID":"CO-824738",
                              "jurisdictionOffenceCode":"Section DUMMY Unknown - Used by converted TCV codes",
                              "jurisdictionOffenceDescription":"Unknown - Used by converted TCV codes; Speeding By More Than 10km/Hr But Less Than 20km/Hr",
                              "offenceProcessStatus":"GUILTY",
                              "offenceProcessStatusDate":"1996-05-23",
                              "offenceProcessLocationString":"Perth Court of Petty Sessions",
                              "offenceStatusDetails":"[Counts 1]FINE: $40;",
                              "roleCode":"CH"
                           }
                        }
                     },
                     {
                        "personDetailslD":"742661",
                        "involvementGroup":{
                           "offence":{
                              "informationSource":{
                                 "sourceAgencyCode":"WAPOL",
                                 "sourceReferenceNumber":"16899",
                                 "sourceAdditionalReference":[

                                 ]
                              },
                              "involvementStatusCode":"ACTIVE",
                              "offenceID":"CO-824737",
                              "jurisdictionOffenceCode":"Section DUMMY Unknown - Used by converted TCV codes",
                              "jurisdictionOffenceDescription":"Unknown - Used by converted TCV codes; Speeding By More Than 30km/Hr But Less Than 40km/Hr",
                              "offenceProcessStatus":"GUILTY",
                              "offenceProcessStatusDate":"1996-04-05",
                              "offenceProcessLocationString":"Perth Court of Petty Sessions",
                              "offenceStatusDetails":"[Counts 1]FINE: $95;",
                              "roleCode":"CH"
                           }
                        }
                     },
                     {
                        "personDetailslD":"742661",
                        "involvementGroup":{
                           "offence":{
                              "informationSource":{
                                 "sourceAgencyCode":"WAPOL",
                                 "sourceReferenceNumber":"16899",
                                 "sourceAdditionalReference":[

                                 ]
                              },
                              "involvementStatusCode":"ACTIVE",
                              "offenceID":"CO-824736",
                              "jurisdictionOffenceCode":"Section DUMMY Unknown - Used by converted TCV codes",
                              "jurisdictionOffenceDescription":"Unknown - Used by converted TCV codes; Speeding By More Than 30km/Hr But Less Than 40km/Hr",
                              "offenceProcessStatus":"GUILTY",
                              "offenceProcessStatusDate":"1996-03-15",
                              "offenceProcessLocationString":"Perth Court of PettySessions",
                              "offenceStatusDetails":"[Counts 1]FINE: $90;",
                              "roleCode":"CH"
                           }
                        }
                     },
                     {
                        "personDetailsID":"742661",
                        "involvementGroup":{
                           "offence":{
                              "informationSource":{
                                 "sourceAgencyCode":"WAPOL",
                                 "sourceReferenceNumber":"16899",
                                 "sourceAdditionalReference":[

                                 ]
                              },
                              "involvementStatusCode":"ACTIVE",
                              "offenceID":"CO-1422790",
                              "jurisdictionOffenceDescription":"ASSAULT OCCASIONING BODILYHARM",
                              "offenceProcessStatus":"APPROVED",
                              "offenceProcessStatusDate":"1985-04-18",
                              "offenceProcessLocationString":"Perth District Court ofWestern Australia",
                              "offenceStatusDetails":"[Counts 2]1. 1 YR IMP 2. 1 YR IMP CUMNO MINIMUM",
                              "roleCode":"CH"
                           }
                        }
                     },
                     {
                        "personDetailsID":"742661",
                        "involvementGroup":{
                           "offence":{
                              "informationSource":{
                                 "sourceAgencyCode":"WAPOL",
                                 "sourceReferenceNumber":"16899",
                                 "sourceAdditionalReference":[

                                 ]
                              },
                              "involvementStatusCode":"ACTIVE",
                              "offencelD":"CO-1422791",
                              "jurisdictionOffenceDescription":"RESIST ARREST",
                              "offenceProcessStatus":"APPROVED",
                              "offenceProcessStatusDate":"1982-06-15",
                              "offenceProcessLocationString":"Perth Court of Petty Sessions",
                              "offenceStatusDetails":"[Counts 1]3 MTHS IMP CONC",
                              "roleCode":"CH"
                           }
                        }
                     },
                     {
                        "personDetailsID":"742661",
                        "involvementGroup":{
                           "offence":{
                              "informationSource":{
                                 "sourceAgencyCode":"WAPOL",
                                 "sourceReferenceNumber":"16899",
                                 "sourceAdditionalReference":[

                                 ]
                              },
                              "involvementStatusCode":"ACTIVE",
                              "offenceID":"CO-1422793",
                              "jurisdictionOffenceDescription":"HEROIN POSSESS MONEY FROMSALE OF",
                              "offenceProcessStatus":"APPROVED",
                              "offenceProcessStatusDate":"1982-06-15",
                              "offenceProcessLocationString":"Perth Court of Petty Sessions",
                              "offenceStatusDetails":"[Counts 1]12 MTHS IMP CON",
                              "roleCode":"CH"
                           }
                        }
                     },
                     {
                        "personDetailslD":"742661",
                        "involvementGroup":{
                           "offence":{
                              "informationSource":{
                                 "sourceAgencyCode":"WAPOL",
                                 "sourceReferenceNumber":"16899",
                                 "sourceAdditionalReference":[

                                 ]
                              },
                              "involvementStatusCode":"ACTIVE",
                              "offenceID":"CO-824735",
                              "jurisdictionOffenceCode":"Section 49 Subsection (1)(a) & (2)(a) Road Traffic Act 1974",
                              "jurisdictionOffenceDescription":"No Motor Drivers Licence -Under Suspension",
                              "offenceProcessStatus":"GUILTY",
                              "offenceProcessStatusDate":"1982-06-15",
                              "offenceProcessLocationString":"Perth Court of Petty Sessions",
                              "offenceStatusDetails":"1[Counts 1]FINE: $150;",
                              "roleCode":"CH"
                           }
                        }
                     },
                     {
                        "personDetailsID":"742661",
                        "involvementGroup":{
                           "offence":{
                              "informationSource":{
                                 "sourceAgencyCode":"WAPOL",
                                 "sourceReferenceNumber":"16899",
                                 "sourceAdditionalReference":[

                                 ]
                              },
                              "involvementStatusCode":"ACTIVE",
                              "offenceID":"CO-1422794",
                              "jurisdictionOffenceDescription":"ASSAULT UNLAWFUL (COMMON)",
                              "offenceProcessStatus":"APPROVED",
                              "offenceProcessStatusDate":"2000-05-05",
                              "offenceProcessLocationString":"Perth Court of Petty",
                              "offenceStatusDetails":"[Counts 1]WITHDRWN",
                              "roleCode":"CH"
                           }
                        }
                     },
                     {
                        "personDetailslD":"752793530P",
                        "involvementGroup":{
                           "offence":{
                              "informationSource":{
                                 "sourceAgencyCode":"WAPOL",
                                 "sourceReferenceNumber":"BRIEF",
                                 "sourceAdditionalReference":[
                                    "16"
                                 ]
                              },
                              "involvementStatusCode":"ACTIVE",
                              "offencelD":"140204316",
                              "asocRefCode":"0213",
                              "jurisdictionOffenceCode":"LAW.3 Al",
                              "jurisdictionOffenceDescription":"COMMON LAW ASSAULT",
                              "offenceProcessStatus":"GUILTY",
                              "offenceProcessStatusDate":"2014-05-16",
                              "offenceProcessLocationString":"MELBOURNE COUNTY COURT",
                              "offenceDate":"2016-12-12",
                              "offenceLocationString":"MELBOURNE",
                              "offenceStatusDetails":"(8 MONTH(S) IMPRISONMENT)",
                              "chargeDate":"2011-12-29",
                              "roleCode":"CH"
                           }
                        }
                     },
                     {
                        "personDetailsID":"752793530P",
                        "involvementGroup":{
                           "offence":{
                              "informationSource":{
                                 "sourceAgencyCode":"WAPOL",
                                 "sourceReferenceNumber":"BRIEF",
                                 "sourceAdditionalReference":[
                                    "19"
                                 ]
                              },
                              "involvementStatusCode":"ACTIVE",
                              "offencelD":"140204317",
                              "asocRefCode":"0213",
                              "jurisdictionOffenceCode":"LAW.3 Al",
                              "jurisdictionOffenceDescription":"COMMON LAW ASSAULT",
                              "offenceProcessStatus":"GUILTY",
                              "offenceProcessStatusDate":"2014-05-16",
                              "offenceProcessLocationString":"MELBOURNE COUNTY COURT",
                              "offenceDate":"2017-12-18",
                              "offenceLocationString":"MELBOURNE",
                              "offenceStatusDetails":"(8 MONTH(S) IMPRISONMENT)",
                              "chargeDate":"2011-12-29",
                              "roleCode":"CH"
                           }
                        }
                     },
                     {
                        "personDetailsID":"752793530P",
                        "involvementGroup":{
                           "offence":{
                              "informationSource":{
                                 "sourceAgencyCode":"WAPOL",
                                 "sourceReferenceNumber":"BRIEF",
                                 "sourceAdditionalReference":[
                                    "C100824562"
                                 ]
                              },
                              "involvementStatusCode":"ACTIVE",
                              "offenceID":"130095343",
                              "asocRefCode":"0211",
                              "jurisdictionOffenceCode":"6231.16 Al",
                              "jurisdictionOffenceDescription":"INTENTIONALLY CAUSE SERIOUS INJURY",
                              "offenceProcessStatus":"NOT GUILTY",
                              "offenceProcessStatusDate":"2016-03-27",
                              "offenceProcessLocationString":"MELBOURNE MAGISTRATES COURT",
                              "offenceDate":"2015-12-18",
                              "offenceLocationString":"MELBOURNE",
                              "offenceStatusDetails":"(WID, STRUCKOUT NOLLE PROSEQUI)",
                              "chargeDate":"2011-12-29",
                              "roleCode":"NOT GUILTY"
                           }
                        }
                     },
                     {
                        "personDetailsID":"742661",
                        "involvementGroup":{
                           "offence":{
                              "informationSource":{
                                 "sourceAgencyCode":"WAPOL",
                                 "sourceReferenceNumber":"16899",
                                 "sourceAdditionalReference":[

                                 ]
                              },
                              "involvementStatusCode":"ACTIVE",
                              "offenceID":"CO-1422795",
                              "jurisdictionOffenceDescription":"HEROIN SELL/SUPPLY",
                              "offenceProcessStatus":"APPROVED",
                              "offenceProcessStatusDate":"1982-03-12",
                              "offenceProcessLocationString":"Perth Supreme Court of Western Australia",
                              "offenceStatusDetails":"[Counts 1]5 YRS IMP MIN 2 YRS",
                              "roleCode":"CH"
                           }
                        }
                     },
                     {
                        "personDetailslD":"742661",
                        "involvementGroup":{
                           "offence":{
                              "informationSource":{
                                 "sourceAgencyCode":"WAPOL",
                                 "sourceReferenceNumber":"16899",
                                 "sourceAdditionalReference":[

                                 ]
                              },
                              "involvementStatusCode":"ACTIVE",
                              "offenceID":"CO-824734",
                              "jurisdictionOffenceCode":"Section DUMMY Unknown - Used by converted TCV codes",
                              "jurisdictionOffenceDescription":"Unknown - Used by converted TCV codes; Speeding By More Than 10km/Hr But Less Than 20km/Hr",
                              "offenceProcessStatus":"GUILTY",
                              "offenceProcessStatusDate":"1981-10-26",
                              "offenceProcessLocationString":"Perth Court of PettySessions",
                              "offenceStatusDetails":"[Counts 1]FINE: $50;",
                              "roleCode":"CH"
                           }
                        }
                     },
                     {
                        "personDetailsID":"742661",
                        "involvementGroup":{
                           "offence":{
                              "informationSource":{
                                 "sourceAgencyCode":"WAPOL",
                                 "sourceReferenceNumber":"16899",
                                 "sourceAdditionalReference":[

                                 ]
                              },
                              "involvementStatusCode":"ACTIVE",
                              "offenceID":"CO-824733",
                              "jurisdictionOffenceCode":"Section 1503 Subsection (1) RoadTraffic Code",
                              "jurisdictionOffenceDescription":"No Seat Belt (Driver)",
                              "offenceProcessStatus":"GUILTY",
                              "offenceProcessStatusDate":"1981-08-24",
                              "offenceProcessLocationString":"Perth Court of PettySessions",
                              "offenceStatusDetails":"[Counts 1]FINE: $25;",
                              "roleCode":"CH"
                           }
                        }
                     },
                     {
                        "personDetailsID":"742661",
                        "involvementGroup":{
                           "offence":{
                              "informationSource":{
                                 "sourceAgencyCode":"WAPOL",
                                 "sourceReferenceNumber":"16899",
                                 "sourceAdditionalReference":[

                                 ]
                              },
                              "involvementStatusCode":"ACTIVE",
                              "offenceID":"CO-1422797",
                              "jurisdictionOffenceDescription":"ASSAULT AGGRAVATED",
                              "offenceProcessStatus":"APPROVED",
                              "offenceProcessStatusDate":"1981-05-27",
                              "offenceProcessLocationString":"Perth Court of Petty Sessions",
                              "offenceStatusDetails":"[Counts 1]DISM",
                              "roleCode":"CH"
                           }
                        }
                     },
                     {
                        "personDetailslD":"742661",
                        "involvementGroup":{
                           "offence":{
                              "informationSource":{
                                 "sourceAgencyCode":"WAPOL",
                                 "sourceReferenceNumber":"16899",
                                 "sourceAdditionalReference":[

                                 ]
                              },
                              "involvementStatusCode":"ACTIVE",
                              "offencelD":"CO-1422796",
                              "jurisdictionOffenceDescription":"ASSAULT UNLAWFUL (COMMON)",
                              "offenceProcessStatus":"APPROVED",
                              "offenceProcessStatusDate":"1981-05-27",
                              "offenceProcessLocationString":"Perth Court of Petty Sessions",
                              "offenceStatusDetails":"[Counts 2]DISM ECH CHG",
                              "roleCode":"CH"
                           }
                        }
                     },
                     {
                        "personDetailsID":"742661",
                        "involvementGroup":{
                           "offence":{
                              "informationSource":{
                                 "sourceAgencyCode":"WAPOL",
                                 "sourceReferenceNumber":"16899",
                                 "sourceAdditionalReference":[

                                 ]
                              },
                              "involvementStatusCode":"ACTIVE",
                              "offenceID":"CO-824732",
                              "jurisdictionOffenceCode":"Section 62 Road Traffic Act 1974",
                              "jurisdictionOffenceDescription":"Careless Driving",
                              "offenceProcessStatus":"GUILTY",
                              "offenceProcessStatusDate":"1981-04-14",
                              "offenceProcessLocationString":"Perth Court of Petty Sessions",
                              "offenceStatusDetails":"[Counts 1]FINE: $30;",
                              "roleCode":"CH"
                           }
                        }
                     },
                     {
                        "personDetailslD":"742661",
                        "involvementGroup":{
                           "offence":{
                              "informationSource":{
                                 "sourceAgencyCode":"WAPOL",
                                 "sourceReferenceNumber":"16899",
                                 "sourceAdditionalReference":[

                                 ]
                              },
                              "involvementStatusCode":"ACTIVE",
                              "offencelD":"CO-1422798",
                              "jurisdictionOffenceDescription":"STEALING AND RECEIVING",
                              "offenceProcessStatus":"APPROVED",
                              "offenceProcessStatusDate":"1980-11-20",
                              "offenceProcessLocationString":"Perth Court of Petty Sessions",
                              "offenceStatusDetails":"[Counts l]WITHDRWN",
                              "roleCode":"CH"
                           }
                        }
                     },
                     {
                        "personDetailslD":"742661",
                        "involvementGroup":{
                           "offence":{
                              "informationSource":{
                                 "sourceAgencyCode":"WAPOL",
                                 "sourceReferenceNumber":"16899",
                                 "sourceAdditionalReference":[

                                 ]
                              },
                              "involvementStatusCode":"ACTIVE",
                              "offencelD":"CO-1422799",
                              "jurisdictionOffenceDescription":"ASSAULT UNLAWFUL (COMMON)",
                              "offenceProcessStatus":"APPROVED",
                              "offenceProcessStatusDate":"1978-11-17",
                              "offenceProcessLocationString":"Perth Children's Court",
                              "offenceStatusDetails":"[JUV][Counts 2]DISM 526 CWA",
                              "roleCode":"CH"
                           }
                        }
                     },
                     {
                        "personDetailsID":"742661",
                        "involvementGroup":{
                           "offence":{
                              "informationSource":{
                                 "sourceAgencyCode":"WAPOL",
                                 "sourceReferenceNumber":"16899",
                                 "sourceAdditionalReference":[

                                 ]
                              },
                              "involvementStatusCode":"INDETERMINATE",
                              "offenceID":"PC-1598790",
                              "jurisdictionOffenceDescription":"CONSPIRACY TO COMMIT AN OFFENCE, 5 11.5(1), CORPORATION ACT 2001",
                              "offenceProcessStatus":"APPROVED",
                              "offenceProcessStatusDate":"2010-03-22",
                              "offenceProcessLocationString":"UNKNOWN",
                              "offenceDate":"2010-03-22",
                              "offenceLocationString":"",
                              "offenceStatusDetails":"Unknown",
                              "chargeDate":"2010-03-22",
                              "roleCode":"CHRG"
                           }
                        }
                     },
                     {
                        "personDetailsID":"742661",
                        "involvementGroup":{
                           "offence":{
                              "informationSource":{
                                 "sourceAgencyCode":"WAPOL",
                                 "sourceReferenceNumber":"16899",
                                 "sourceAdditionalReference":[

                                 ]
                              },
                              "involvementStatusCode":"INDETERMINATE",
                              "offenceID":"PC-1598790",
                              "jurisdictionOffenceDescription":"CONSPIRACY TO COMMIT AN OFFENCE, S 11.5(1), CORPORATION ACT 2001",
                              "offenceProcessStatus":"APPROVED",
                              "offenceProcessStatusDate":"2010-03-22",
                              "offenceProcessLocationString":"UNKNOWN",
                              "offenceDate":"2010-03-22",
                              "offenceLocationString":"",
                              "offenceStatusDetails":"Unknown",
                              "chargeDate":"2010-03-22",
                              "roleCode":"CHRG"
                           }
                        }
                     },
                     {
                        "personDetailsID":"742661",
                        "involvementGroup":{
                           "offence":{
                              "informationSource":{
                                 "sourceAgencyCode":"WAPOL",
                                 "sourceReferenceNumber":"16899",
                                 "sourceAdditionalReference":[

                                 ]
                              },
                              "involvementStatusCode":"INDETERMINATE",
                              "offenceID":"PC-1598790",
                              "jurisdictionOffenceDescription":"PROHIBITTED CONDUCT BY PERSON IN POSSESSION OF INSIDE INFORMATION, S1002G(2), CORP ACT 2001",
                              "offenceProcessStatus":"APPROVED",
                              "offenceProcessStatusDate":"2010-03-22",
                              "offenceProcessLocationString":"UNKNOWN",
                              "offenceDate":"2010-03-22",
                              "offenceLocationString":"",
                              "offenceStatusDetails":"Unknown",
                              "chargeDate":"2010-03-22",
                              "roleCode":"CHRG"
                           }
                        }
                     },
                     {
                        "personDetallsID":"742661",
                        "involvementGroup":{
                           "offence":{
                              "informationSource":{
                                 "sourceAgencyCode":"WAPOL",
                                 "sourceReferenceNumber":"16899",
                                 "sourceAdditionalReference":[

                                 ]
                              },
                              "involvementStatusCode":"INDETERMINATE",
                              "offencelD":"PC-1598790",
                              "jurisdictionOffenceDescription":"PROHIBITTED CONDUCT BY PERSON IN POSSESSION OF INSIDE INFORMATION, S1002G(2), CORP ACT 2001",
                              "offenceProcessStatus":"APPROVED",
                              "offenceProcessStatusDate":"2010-03-22",
                              "offenceProcessLocationString":"UNKNOWN",
                              "offenceDate":"2010-03-22",
                              "offenceLocationString":"",
                              "offenceStatusDetails":"Unknown",
                              "chargeDate":"2010-03-22",
                              "roleCode":"CHRG"
                           }
                        }
                     },
                     {
                        "personDetailslD":"742661",
                        "involvementGroup":{
                           "offence":{
                              "informationSource":{
                                 "sourceAgencyCode":"WAPOL",
                                 "sourceReferenceNumber":"16899",
                                 "sourceAdditionaiReference":[

                                 ]
                              },
                              "involvementStatusCode":"INDETERMINATE",
                              "offencelD":"PC-1598790",
                              "jurisdictionOffenceDescription":"PROHIBITTED CONDUCT BY PERSON IN POSSESSION OF INSIDE INFORMATION, S1002G(2), CORP ACT 2001",
                              "offenceProcessStatus":"APPROVED",
                              "offenceProcessStatusDate":"2010-03-22",
                              "offenceProcessLocationString":"UNKNOWN",
                              "offenceDate":"2010-03-22",
                              "offenceLocationString":"",
                              "offenceStatusDetails":"Unknown",
                              "chargeDate":"2010-03-22",
                              "roleCode":"CHRG"
                           }
                        }
                     },
                     {
                        "personDetailslD":"742661",
                        "involvementGroup":{
                           "offence":{
                              "informationSource":{
                                 "sourceAgencyCode":"WAPOL",
                                 "sourceReferenceNumber":"16899",
                                 "sourceAdditionalReference":[

                                 ]
                              },
                              "involvementStatusCode":"INDETERMINATE",
                              "offencelD":"PC-110925",
                              "jurisdictionOffenceCode":"Section 143 Criminal Code",
                              "jurisdictionOffenceDescription":"Attempt to Pervert Justice",
                              "offenceProcessStatus":"APPROVED",
                              "offenceProcessStatusDate":"2005-02-18",
                              "offenceProcessLocationString":"PERTH",
                              "offenceDate":"2005-02-18",
                              "offenceLocationString":"",
                              "offenceStatusDetails":"Summons/Juvenile Notice",
                              "chargeDate":"2005-02-18",
                              "roleCode":"CHRG"
                           }
                        }
                     },
                     {
                        "personDetailsID":"742661",
                        "involvementGroup":{
                           "offence":{
                              "informationSource":{
                                 "sourceAgencyCode":"WAPOL",
                                 "sourceReferenceNumber":"16899",
                                 "sourceAdditionalReference":[

                                 ]
                              },
                              "involvementStatusCode":"INDETERMINATE",
                              "offenceID":"PC-110924",
                              "jurisdictionOffenceDescription":"ACCESSORY AFTER THE FACT",
                              "offenceProcessStatus":"APPROVED",
                              "offenceProcessStatusDate":"2005-01-23",
                              "offenceProcessLocationString":"PERTH 006000",
                              "offenceDate":"2005-01-23",
                              "offenceLocationString":"PERTH 006000",
                              "offenceStatusDetails":"Arrest",
                              "chargeDate":"2005-01-23",
                              "roleCode":"CHRG"
                           }
                        }
                     },
                     {
                        "personDetailsID":"742661",
                        "involvementGroup":{
                           "offence":{
                              "informationSource":{
                                 "sourceAgencyCode":"WAPOL",
                                 "sourceReferenceNumber":"16899",
                                 "sourceAdditionalReference":[

                                 ]
                              },
                              "involvementStatusCode":"INDETERMINATE",
                              "offencelD":"PC-110923",
                              "jurisdictionOffenceDescription":"FAILURE TO ATTEND NCA HEARING",
                              "offenceProcessStatus":"APPROVED",
                              "offenceProcessStatusDate":"2002-12-23",
                              "offenceProcessLocationString":"PERTH 006000",
                              "offenceDate":"2007-12-23",
                              "offenceLocationString":"PERTH 006000",
                              "offenceStatusDetails":"Summons/Juvenile Notice",
                              "chargeDate":"2002-12-23",
                              "roleCode":"CHRG"
                           }
                        }
                     },
                     {
                        "personDetailsID":"742661",
                        "involvementGroup":{
                           "offence":{
                              "informationSource":{
                                 "sourceAgencyCode":"WAPOL",
                                 "sourceReferenceNumber":"16899",
                                 "sourceAdditionalReference":[

                                 ]
                              },
                              "involvementStatusCode":"INDETERMINATE",
                              "offenceID":"PC-110922",
                              "jurisdictionOffenceDescription":"CONSPIRACY TO SELL/SUPPLY DRUGS",
                              "offenceProcessStatus":"APPROVED",
                              "offenceProcessStatusDate":"1995-03-31",
                              "offenceProcessLocationString":"PERTH 006000",
                              "offenceDate":"2005-03-31",
                              "offenceLocationString":"PERTH 006000",
                              "offenceStatusDetails":"Arrest",
                              "chargeDate":"1995-03-31",
                              "roleCode":"CHRG"
                           }
                        }
                     },
                     {
                        "personDetailsID":"742661",
                        "involvementGroup":{
                           "offence":{
                              "informationSource":{
                                 "sourceAgencyCode":"WAPOL",
                                 "sourceReferenceNumber":"16899",
                                 "sourceAdditionalReference":[

                                 ]
                              },
                              "involvementStatusCode":"INDETERMINATE",
                              "offencelD":"PC-110920",
                              "jurisdictionOffenceDescription":"ASSAULT OCCASIONING BODILY HARM",
                              "offenceProcessStatus":"APPROVED",
                              "offenceProcessStatusDate":"1994-02-23",
                              "offenceProcessLocationString":"PERTH 006000",
                              "offenceDate":"1994-02-23",
                              "offenceLocationString":"PERTH 006000",
                              "offenceStatusDetails":"Arrest",
                              "chargeDate":"1994-02-23",
                              "roleCode":"CHRG"
                           }
                        }
                     },
                     {
                        "personDetailsID":"742661",
                        "involvementGroup":{
                           "offence":{
                              "informationSource":{
                                 "sourceAgencyCode":"WAPOL",
                                 "sourceReferenceNumber":"16899",
                                 "sourceAdditionalReference":[

                                 ]
                              },
                              "involvementStatusCode":"INDETERMINATE",
                              "offenceID":"PC-110919",
                              "jurisdictionOffenceDescription":"ASSAULT OCCASIONING BODILYHARM",
                              "offenceProcessStatus":"APPROVED",
                              "offenceProcessStatusDate":"1992-08-26",
                              "offenceProcessLocationString":"PERTH 006000",
                              "offenceDate":"1992-08-26",
                              "offenceLocationString":"PERTH 006000",
                              "offenceStatusDetails":"Arrest",
                              "chargeDate":"1992-08-26",
                              "roleCode":"CHRG"
                           }
                        }
                     },
                     {
                        "personDetailsID":"742661",
                        "involvementGroup":{
                           "offence":{
                              "informationSource":{
                                 "sourceAgencyCode":"WAPOL",
                                 "sourceReferenceNumber":"16899",
                                 "sourceAdditionalReference":[

                                 ]
                              },
                              "involvementStatusCode":"INDETERMINATE",
                              "offenceID":"PC-110918",
                              "jurisdictionOffenceDescription":"OPERATE FALSE BANK ACCOUNT/S",
                              "offenceProcessStatus":"APPROVED",
                              "offenceProcessStatusDate":"1990-02-14",
                              "offenceProcessLocationString":"PERTH 006000",
                              "offenceDate":"1990-02-14",
                              "offenceLocationString":"PERTH 006000",
                              "offenceStatusDetails":"Arrest",
                              "chargeDate":"1990-02-14",
                              "roleCode":"CHRG"
                           }
                        }
                     },
                     {
                        "personDetailsID":"742661",
                        "involvementGroup":{
                           "offence":{
                              "informationSource":{
                                 "sourceAgencyCode":"WAPOL",
                                 "sourceReferenceNumber":"16899",
                                 "sourceAdditionalReference":[

                                 ]
                              },
                              "involvementStatusCode":"INDETERMINATE",
                              "offenceID":"PC-110917",
                              "jurisdictionOffenceDescription":"FALSE DECLARATION",
                              "offenceProcessStatus":"APPROVED",
                              "offenceProcessStatusDate":"1990-02-02",
                              "offenceProcessLocationString":"PERTH 006000",
                              "offenceDate":"1990-02-02",
                              "offenceLocationString":"PERTH 006000",
                              "offenceStatusDetails":"Arrest",
                              "chargeDate":"1990-02-02",
                              "roleCode":"CHRG"
                           }
                        }
                     },
                     {
                        "personDetailsID":"742661",
                        "involvementGroup":{
                           "offence":{
                              "informationSource":{
                                 "sourceAgencyCode":"WAPOL",
                                 "sourceReferenceNumber":"16899",
                                 "sourceAdditionalReference":[

                                 ]
                              },
                              "involvementStatusCode":"INDETERMINATE",
                              "offenceID":"PC-110916",
                              "jurisdictionOffenceDescription":"OPERATE FALSE BANK ACCOUNT/S",
                              "offenceProcessStatus":"APPROVED",
                              "offenceProcessStatusDate":"1996-12-27",
                              "offenceProcessLocationString":"PERTH 006000",
                              "offenceDate":"1996-12-27",
                              "offenceLocationString":"PERTH 006000",
                              "offenceStatusDetails":"Arrest",
                              "chargeDate":"1996-12-27",
                              "roleCode":"CHRG"
                           }
                        }
                     },
                     {
                        "personDetailsID":"742661",
                        "involvementGroup":{
                           "offence":{
                              "informationSource":{
                                 "sourceAgencyCode":"WAPOL",
                                 "sourceReferenceNumber":"16899",
                                 "sourceAdditionalReference":[

                                 ]
                              },
                              "involvementStatusCode":"INDETERMINATE",
                              "offenceID":"PC-110916",
                              "jurisdictionOffenceDescription":"MONEY LAUNDERING",
                              "offenceProcessStatus":"APPROVED",
                              "offenceProcessStatusDate":"1996-12-27",
                              "offenceProcessLocationString":"PERTH 006000",
                              "offenceDate":"1996-12-27",
                              "offenceLocationString":"PERTH 006000",
                              "offenceStatusDetails":"Arrest",
                              "chargeDate":"1996-12-27",
                              "roleCode":"CHRG"
                           }
                        }
                     },
                     {
                        "personDetailsID":"742661",
                        "involvementGroup":{
                           "offence":{
                              "informationSource":{
                                 "sourceAgencyCode":"WAPOL",
                                 "sourceReferenceNumber":"16899",
                                 "sourceAdditionalReference":[

                                 ]
                              },
                              "involvementStatusCode":"INDETERMINATE",
                              "offencelD":"PC-110915",
                              "jurisdictionOffenceDescription":"ASSAULT OCCASIONING BODILY HARM",
                              "offenceProcessStatus":"APPROVED",
                              "offenceProcessStatusDate":"1993-07-23",
                              "offenceProcessLocationString":"MORLEY 006062",
                              "offenceDate":"1993-07-23",
                              "offenceLocationString":"MORLEY 006062",
                              "offenceStatusDetails":"Arrest",
                              "chargeDate":"1993-07-23",
                              "roleCode":"CHRG"
                           }
                        }
                     },
                     {
                        "personDetailsID":"742661",
                        "briefDescription":"Not to Issue Firearm",
                        "involvementGroup":{
                           "warning":{
                              "informationSource":{
                                 "sourceAgencyCode":"WAPOL",
                                 "sourceReferenceNumber":"742661",
                                 "sourceAdditionalReference":[

                                 ]
                              },
                              "involvementStatusCode":"ACTIVE",
                              "warningID":"36490",
                              "warningCode":"UNCATEGORISED WARNING",
                              "lastUpdatedDate":"1996-10-30"
                           }
                        }
                     }
                  ]
               }
            }
         }
      }
}